…
**q1** Modify the code below to evaluate a uniform distribution with
`min = -1` and `max = +1`. Assign this value to `d`.

``` r
## TODO: Complete this code
df_q1 <-
  tibble(x = seq(-5, +5, length.out = 100)) %>% 
  #Above is the original code, and below is the code I'm adding.
  mutate(d = dunif(x, min = -1, max = 1))

df_q1
```

    ## # A tibble: 100 x 2
    ##        x     d
    ##    <dbl> <dbl>
    ##  1 -5        0
    ##  2 -4.90     0
    ##  3 -4.80     0
    ##  4 -4.70     0
    ##  5 -4.60     0
    ##  6 -4.49     0
    ##  7 -4.39     0
    ##  8 -4.29     0
    ##  9 -4.19     0
    ## 10 -4.09     0
    ## # … with 90 more rows
…
``` r
## NOTE: Use the data generated here
df_q2 <- map_dfr(
  c(5, 10, 1e3),
  function(nsamp) {
    tibble(Z = rnorm(n = nsamp), n = nsamp)
  }
)

df_q2
```

    ## # A tibble: 1,015 x 2
    ##         Z     n
    ##     <dbl> <dbl>
    ##  1 -1.35      5
    ##  2  0.936     5
    ##  3  1.27      5
    ##  4  0.641     5
    ##  5 -0.738     5
    ##  6  0.196    10
    ##  7 -1.06     10
    ##  8  1.06     10
    ##  9 -0.712    10
    ## 10 -0.844    10
    ## # … with 1,005 more rows
…
