…
**q1** Filter the `mpg` dataset to include only those observations with
a `trans` of the form “l3, l4, l5, l6”.

``` r
## TASK: Mutate `trans` to extract
df_q1 <-
  mpg %>% 
  filter(str_detect(trans,"l\\d"))
df_q1
```

    ## # A tibble: 130 x 11
    ##    manufacturer model     displ  year   cyl trans  drv     cty   hwy fl    class
    ##    <chr>        <chr>     <dbl> <int> <int> <chr>  <chr> <int> <int> <chr> <chr>
    ##  1 audi         a4          1.8  1999     4 auto(… f        18    29 p     comp…
    ##  2 audi         a4          2.8  1999     6 auto(… f        16    26 p     comp…
    ##  3 audi         a4 quatt…   1.8  1999     4 auto(… 4        16    25 p     comp…
    ##  4 audi         a4 quatt…   2.8  1999     6 auto(… 4        15    25 p     comp…
    ##  5 audi         a6 quatt…   2.8  1999     6 auto(… 4        15    24 p     mids…
    ##  6 chevrolet    c1500 su…   5.3  2008     8 auto(… r        14    20 r     suv  
    ##  7 chevrolet    c1500 su…   5.3  2008     8 auto(… r        11    15 e     suv  
    ##  8 chevrolet    c1500 su…   5.3  2008     8 auto(… r        14    20 r     suv  
    ##  9 chevrolet    c1500 su…   5.7  1999     8 auto(… r        13    17 r     suv  
    ## 10 chevrolet    c1500 su…   6    2008     8 auto(… r        12    17 r     suv  
    ## # … with 120 more rows
…
