…
    ## Warning: Expected 2 pieces. Additional pieces discarded in 1 rows [10].

``` r
df_antibiotics2
```

    ## # A tibble: 48 x 7
    ##    bacteria            genus      species   gram    shape    antibiotic    value
    ##    <chr>               <chr>      <chr>     <chr>   <chr>    <chr>         <dbl>
    ##  1 Aerobacter aerogen… Aerobacter aerogenes negati… rod      penicillin  870    
    ##  2 Aerobacter aerogen… Aerobacter aerogenes negati… rod      neomycin      1.6  
    ##  3 Aerobacter aerogen… Aerobacter aerogenes negati… rod      streptomyc…   1    
    ##  4 Brucella abortus    Brucella   abortus   negati… rod      penicillin    1    
    ##  5 Brucella abortus    Brucella   abortus   negati… rod      neomycin      0.02 
    ##  6 Brucella abortus    Brucella   abortus   negati… rod      streptomyc…   2    
    ##  7 Bacillus anthracis  Bacillus   anthracis positi… rod      penicillin    0.001
    ##  8 Bacillus anthracis  Bacillus   anthracis positi… rod      neomycin      0.007
    ##  9 Bacillus anthracis  Bacillus   anthracis positi… rod      streptomyc…   0.01 
    ## 10 Diplococcus pneumo… Diplococc… pneumonia positi… spheric… penicillin    0.005
    ## # … with 38 more rows
…
