…
**q3** Process the `id` column of `df_pop` to create a `fips` column.

``` r
## TASK: Create a `fips` column by extracting the county code
df_q3 <- df_pop %>% 
  mutate(
  fips = str_sub(id, start = -5)
)

df_q3
```

    ## # A tibble: 3,221 x 5
    ##    id          `Geographic Area Nam… `Estimate!!Tota… `Margin of Error!!T… fips 
    ##    <chr>       <chr>                            <dbl> <chr>                <chr>
    ##  1 0500000US0… Autauga County, Alab…            55200 *****                01001
    ##  2 0500000US0… Baldwin County, Alab…           208107 *****                01003
    ##  3 0500000US0… Barbour County, Alab…            25782 *****                01005
    ##  4 0500000US0… Bibb County, Alabama             22527 *****                01007
    ##  5 0500000US0… Blount County, Alaba…            57645 *****                01009
    ##  6 0500000US0… Bullock County, Alab…            10352 *****                01011
    ##  7 0500000US0… Butler County, Alaba…            20025 *****                01013
    ##  8 0500000US0… Calhoun County, Alab…           115098 *****                01015
    ##  9 0500000US0… Chambers County, Ala…            33826 *****                01017
    ## 10 0500000US0… Cherokee County, Ala…            25853 *****                01019
    ## # … with 3,211 more rows
…
``` r
## TASK: Normalize cases and deaths
df_normalized <-
  df_data %>% 
  mutate(
    cases_per100k = cases/(population/100000), 
    deaths_per100k = deaths/(population/100000)
  )

df_normalized %>% 
  arrange(fips, date)
```

    ## # A tibble: 389,202 x 9
    ##    date       county state fips  cases deaths population cases_per100k
    ##    <date>     <chr>  <chr> <chr> <dbl>  <dbl>      <dbl>         <dbl>
    ##  1 2020-03-24 Autau… Alab… 01001     1      0      55200          1.81
    ##  2 2020-03-25 Autau… Alab… 01001     4      0      55200          7.25
    ##  3 2020-03-26 Autau… Alab… 01001     6      0      55200         10.9 
    ##  4 2020-03-27 Autau… Alab… 01001     6      0      55200         10.9 
    ##  5 2020-03-28 Autau… Alab… 01001     6      0      55200         10.9 
    ##  6 2020-03-29 Autau… Alab… 01001     6      0      55200         10.9 
    ##  7 2020-03-30 Autau… Alab… 01001     7      0      55200         12.7 
    ##  8 2020-03-31 Autau… Alab… 01001     7      0      55200         12.7 
    ##  9 2020-04-01 Autau… Alab… 01001    10      0      55200         18.1 
    ## 10 2020-04-02 Autau… Alab… 01001    10      0      55200         18.1 
    ## # … with 389,192 more rows, and 1 more variable: deaths_per100k <dbl>
…
df_Minnesota <- df_normalized %>% 
  filter(state == "Minnesota") %>%
  select(state, date, cases, cases_per100k, deaths, deaths_per100k) %>% 
  group_by(date) %>%
  mutate(
    cases = sum(cases),
    cases_per100k = sum(cases_per100k),
    deaths = sum(deaths),
    deaths_per100k = sum(deaths_per100k)
  )

df_Oregon
```

    ## # A tibble: 155 x 5
    ## # Groups:   date [155]
    ##    date       cases cases_per100k deaths deaths_per100k
    ##    <date>     <dbl>         <dbl>  <dbl>          <dbl>
    ##  1 2020-02-28     1         0.172      0              0
    ##  2 2020-02-29     1         0.172      0              0
    ##  3 2020-03-01     2         0.344      0              0
    ##  4 2020-03-02     2         0.344      0              0
    ##  5 2020-03-03     2         0.344      0              0
    ##  6 2020-03-04     2         0.344      0              0
    ##  7 2020-03-05     2         0.344      0              0
    ##  8 2020-03-06     2         0.344      0              0
    ##  9 2020-03-07     6         2.96       0              0
    ## 10 2020-03-08    13         5.04       0              0
    ## # … with 145 more rows
…
    ## Warning in fips == counties: longer object length is not a multiple of shorter
    ## object length

``` r
my_counties_masks_result_pivot <- my_counties_masks_result %>% 
  pivot_longer(
    cols = c(NEVER, RARELY, SOMETIMES, FREQUENTLY, ALWAYS),
    names_to = "response",
    values_to = "prop"
  )

my_counties_masks_result_pivot
```

    ## # A tibble: 40 x 13
    ## # Groups:   fips [8]
    ##    date       location county state fips  cases deaths population cases_per100k
    ##    <date>     <chr>    <chr>  <chr> <chr> <dbl>  <dbl>      <dbl>         <dbl>
    ##  1 2020-07-19 Escambi… Escam… Flor… 12033  5765     58     311522         1851.
    ##  2 2020-07-19 Escambi… Escam… Flor… 12033  5765     58     311522         1851.
    ##  3 2020-07-19 Escambi… Escam… Flor… 12033  5765     58     311522         1851.
    ##  4 2020-07-19 Escambi… Escam… Flor… 12033  5765     58     311522         1851.
    ##  5 2020-07-19 Escambi… Escam… Flor… 12033  5765     58     311522         1851.
    ##  6 2020-07-25 Olmsted… Olmst… Minn… 27109  1497     21     153065          978.
    ##  7 2020-07-25 Olmsted… Olmst… Minn… 27109  1497     21     153065          978.
    ##  8 2020-07-25 Olmsted… Olmst… Minn… 27109  1497     21     153065          978.
    ##  9 2020-07-25 Olmsted… Olmst… Minn… 27109  1497     21     153065          978.
    ## 10 2020-07-25 Olmsted… Olmst… Minn… 27109  1497     21     153065          978.
    ## # … with 30 more rows, and 4 more variables: deaths_per100k <dbl>,
    ## #   max_date <date>, response <chr>, prop <dbl>
…
