…
\#Population Calculations

``` r
df_food_pop_totals <- df_food_pop %>% 
  mutate(
    total_consumption_food = consumption*population,
    total_co2_food = co2_emmission*population
  )

df_food_pop_totals
```

    ## # A tibble: 1,430 x 11
    ##    country food_category consumption co2_emmission population region income_grp
    ##    <chr>   <chr>               <dbl>         <dbl>      <dbl> <chr>  <chr>     
    ##  1 Argent… Pork                10.5          37.2    42600000 Latin… Upper mid…
    ##  2 Argent… Poultry             38.7          41.5    42600000 Latin… Upper mid…
    ##  3 Argent… Beef                55.5        1712      42600000 Latin… Upper mid…
    ##  4 Argent… Lamb & Goat          1.56         54.6    42600000 Latin… Upper mid…
    ##  5 Argent… Fish                 4.36          6.96   42600000 Latin… Upper mid…
    ##  6 Argent… Eggs                11.4          10.5    42600000 Latin… Upper mid…
    ##  7 Argent… Milk - inc. …      195.          278.     42600000 Latin… Upper mid…
    ##  8 Argent… Wheat and Wh…      103.           19.7    42600000 Latin… Upper mid…
    ##  9 Argent… Rice                 8.77         11.2    42600000 Latin… Upper mid…
    ## 10 Argent… Soybeans             0             0      42600000 Latin… Upper mid…
    ## # … with 1,420 more rows, and 4 more variables: co2_food_country <dbl>,
    ## #   food_consumption_country <dbl>, total_consumption_food <dbl>,
    ## #   total_co2_food <dbl>
…
beef_v_milk
```

    ## # A tibble: 130 x 8
    ##    country region income_grp co2_food_country co2_emmission_B… `co2_emmission_…
    ##    <chr>   <chr>  <chr>                 <dbl>            <dbl>            <dbl>
    ##  1 Argent… Latin… Upper mid…            2172.            1712              278.
    ##  2 Austra… East … High inco…            1939.            1045.             334.
    ##  3 Albania Europ… Upper mid…            1778.             694.             433.
    ##  4 Iceland Europ… High inco…            1731.             412.             322.
    ##  5 New Ze… East … High inco…            1751.             694.             196.
    ##  6 Uruguay Latin… High inco…            1635.             898.             300.
    ##  7 Luxemb… Europ… High inco…            1598.             922.             364.
    ##  8 Brazil  Latin… Upper mid…            1617.            1211.             213.
    ##  9 Kazakh… Europ… Upper mid…            1575.             721.             410.
    ## 10 Sweden  Europ… High inco…            1527.             758.             486.
    ## # … with 120 more rows, and 2 more variables: consumption_Beef <dbl>,
    ## #   `consumption_Milk - inc. cheese` <dbl>
…
df_percents
```

    ## # A tibble: 1,430 x 6
    ##    country  region        income_grp   food_category    percent_diet percent_co2
    ##    <chr>    <chr>         <chr>        <chr>                   <dbl>       <dbl>
    ##  1 Argenti… Latin Americ… Upper middl… Pork                  0.0245      0.0171 
    ##  2 Argenti… Latin Americ… Upper middl… Poultry               0.0900      0.0191 
    ##  3 Argenti… Latin Americ… Upper middl… Beef                  0.129       0.788  
    ##  4 Argenti… Latin Americ… Upper middl… Lamb & Goat           0.00363     0.0251 
    ##  5 Argenti… Latin Americ… Upper middl… Fish                  0.0102      0.00320
    ##  6 Argenti… Latin Americ… Upper middl… Eggs                  0.0265      0.00481
    ##  7 Argenti… Latin Americ… Upper middl… Milk - inc. che…      0.454       0.128  
    ##  8 Argenti… Latin Americ… Upper middl… Wheat and Wheat…      0.240       0.00905
    ##  9 Argenti… Latin Americ… Upper middl… Rice                  0.0204      0.00516
    ## 10 Argenti… Latin Americ… Upper middl… Soybeans              0           0      
    ## # … with 1,420 more rows
…
