…
``` r
df_companion_countries <- df_food_high_income %>% 
  mutate(
    food_consumption_group = cut_width(food_consumption_country, group_width)
  ) %>% 
  filter(food_consumption_group == "(350,450]")

df_companion_countries
```

    ## # A tibble: 105 x 12
    ##    country food_category consumption co2_emmission population region income_grp
    ##    <chr>   <chr>               <dbl>         <dbl>      <dbl> <chr>  <chr>     
    ##  1 Austra… Pork                24.1          85.4    23600000 East … High inco…
    ##  2 Austra… Poultry             46.1          49.5    23600000 East … High inco…
    ##  3 Austra… Beef                33.9        1045.     23600000 East … High inco…
    ##  4 Austra… Lamb & Goat          9.87        346.     23600000 East … High inco…
    ##  5 Austra… Fish                17.7          28.2    23600000 East … High inco…
    ##  6 Austra… Eggs                 8.51          7.82   23600000 East … High inco…
    ##  7 Austra… Milk - inc. …      234.          334.     23600000 East … High inco…
    ##  8 Iceland Pork                21.7          76.8      329000 Europ… High inco…
    ##  9 Iceland Poultry             26.9          28.9      329000 Europ… High inco…
    ## 10 Iceland Beef                13.4         412.       329000 Europ… High inco…
    ## # … with 95 more rows, and 5 more variables: co2_food_country <dbl>,
    ## #   food_consumption_country <dbl>, percent_diet <dbl>, percent_co2 <dbl>,
    ## #   food_consumption_group <fct>
…
